%YAML 1.1
%TAG !u! tag:unity3d.com,2011:
--- !u!114 &11400000
MonoBehaviour:
  m_ObjectHideFlags: 0
  m_CorrespondingSourceObject: {fileID: 0}
  m_PrefabInstance: {fileID: 0}
  m_PrefabAsset: {fileID: 0}
  m_GameObject: {fileID: 0}
  m_Enabled: 1
  m_EditorHideFlags: 0
  m_Script: {fileID: 11500000, guid: 72fd5b2aacd94a28a73ad115205cc50a, type: 3}
  m_Name: ConfigData
  m_EditorClassIdentifier: 
  Remote: http://192.168.3.134:7980/addressables/DataConfig
  Local: DataConfig
  Db: Server=localhost;Port=3306;Database=winjet;Uid=root;Pwd=root;
  ConfigLoaderMode: 1
