{
    "name": "PlayerInput",
    "maps": [
        {
            "name": "Player",
            "id": "82dde9e5-214f-4674-be77-9de667758cd6",
            "actions": [
                {
                    "name": "Move",
                    "type": "Value",
                    "id": "d212d72a-d805-4de4-9e87-1cf429d91425",
                    "expectedControlType": "Vector2",
                    "processors": "",
                    "interactions": "",
                    "initialStateCheck": true
                },
                {
                    "name": "Jump",
                    "type": "Button",
                    "id": "b48b4c87-fc93-4913-91ba-9d5f1f6e9f1b",
                    "expectedControlType": "Button",
                    "processors": "",
                    "interactions": "",
                    "initialStateCheck": false
                },
                {
                    "name": "Attack",
                    "type": "Button",
                    "id": "d0de4427-6fda-478a-a256-e5c0ae3a99dd",
                    "expectedControlType": "Button",
                    "processors": "",
                    "interactions": "",
                    "initialStateCheck": false
                },
                {
                    "name": "TwoHandAttack",
                    "type": "Button",
                    "id": "62bd4617-a26e-455a-9b4b-90e5824c93fa",
                    "expectedControlType": "Button",
                    "processors": "",
                    "interactions": "",
                    "initialStateCheck": false
                },
                {
                    "name": "IsMoveForward",
                    "type": "Button",
                    "id": "77a7bb7a-062a-42bd-8a41-c1e8b88bd406",
                    "expectedControlType": "Button",
                    "processors": "",
                    "interactions": "",
                    "initialStateCheck": false
                },
                {
                    "name": "IsMoveBackward",
                    "type": "Button",
                    "id": "6cba5fb4-103e-4b73-9114-ddd1d4496304",
                    "expectedControlType": "Button",
                    "processors": "",
                    "interactions": "",
                    "initialStateCheck": false
                },
                {
                    "name": "FreeLook",
                    "type": "Value",
                    "id": "97896acc-db36-410b-ad84-408e8e52a28b",
                    "expectedControlType": "Vector2",
                    "processors": "",
                    "interactions": "",
                    "initialStateCheck": true
                },
                {
                    "name": "Run",
                    "type": "Button",
                    "id": "b1a74d2e-bbd2-4b22-a6cf-6376927a737a",
                    "expectedControlType": "Button",
                    "processors": "",
                    "interactions": "",
                    "initialStateCheck": false
                },
                {
                    "name": "LookLock",
                    "type": "Button",
                    "id": "0333ab7f-5c19-4692-942a-47c8666b4255",
                    "expectedControlType": "Button",
                    "processors": "",
                    "interactions": "",
                    "initialStateCheck": false
                },
                {
                    "name": "Skill",
                    "type": "Button",
                    "id": "fc5e9767-568c-4233-b167-58462124c792",
                    "expectedControlType": "Button",
                    "processors": "",
                    "interactions": "",
                    "initialStateCheck": false
                }
            ],
            "bindings": [
                {
                    "name": "WASD",
                    "id": "bdfbc68f-ac1c-4df0-961f-7934097f33a1",
                    "path": "2DVector",
                    "interactions": "",
                    "processors": "",
                    "groups": "",
                    "action": "Move",
                    "isComposite": true,
                    "isPartOfComposite": false
                },
                {
                    "name": "Up",
                    "id": "70ca964a-4888-4db4-9673-6c8698a0a5a4",
                    "path": "<Keyboard>/w",
                    "interactions": "",
                    "processors": "",
                    "groups": "",
                    "action": "Move",
                    "isComposite": false,
                    "isPartOfComposite": true
                },
                {
                    "name": "Down",
                    "id": "9e17395b-0b47-498f-80a0-6c6a9dee50e7",
                    "path": "<Keyboard>/s",
                    "interactions": "",
                    "processors": "",
                    "groups": "",
                    "action": "Move",
                    "isComposite": false,
                    "isPartOfComposite": true
                },
                {
                    "name": "Left",
                    "id": "50dd41ac-7165-419f-91f7-1bec2e1a236a",
                    "path": "<Keyboard>/a",
                    "interactions": "",
                    "processors": "",
                    "groups": "",
                    "action": "Move",
                    "isComposite": false,
                    "isPartOfComposite": true
                },
                {
                    "name": "Right",
                    "id": "b87ac6dc-9a65-442f-a3e0-9c2ca22ca4b2",
                    "path": "<Keyboard>/d",
                    "interactions": "",
                    "processors": "",
                    "groups": "",
                    "action": "Move",
                    "isComposite": false,
                    "isPartOfComposite": true
                },
                {
                    "name": "",
                    "id": "d9087b11-cae8-4e03-8dd8-1caae9707090",
                    "path": "<Keyboard>/space",
                    "interactions": "",
                    "processors": "",
                    "groups": "",
                    "action": "Jump",
                    "isComposite": false,
                    "isPartOfComposite": false
                },
                {
                    "name": "",
                    "id": "858849d8-2be0-4a6b-b65e-9d7d76d95418",
                    "path": "<Mouse>/leftButton",
                    "interactions": "",
                    "processors": "",
                    "groups": "",
                    "action": "Attack",
                    "isComposite": false,
                    "isPartOfComposite": false
                },
                {
                    "name": "",
                    "id": "fa44d827-9687-429e-b057-a4bdf2c61450",
                    "path": "<Mouse>/rightButton",
                    "interactions": "",
                    "processors": "",
                    "groups": "",
                    "action": "TwoHandAttack",
                    "isComposite": false,
                    "isPartOfComposite": false
                },
                {
                    "name": "",
                    "id": "760de00f-610f-4b09-ade6-f9bacf9a8516",
                    "path": "<Keyboard>/w",
                    "interactions": "",
                    "processors": "",
                    "groups": "",
                    "action": "IsMoveForward",
                    "isComposite": false,
                    "isPartOfComposite": false
                },
                {
                    "name": "",
                    "id": "0282ac86-de21-4a40-bf59-0daf0368c0af",
                    "path": "<Keyboard>/s",
                    "interactions": "",
                    "processors": "",
                    "groups": "",
                    "action": "IsMoveBackward",
                    "isComposite": false,
                    "isPartOfComposite": false
                },
                {
                    "name": "",
                    "id": "da46efca-58f8-4882-8fcc-0ecb9f0484ce",
                    "path": "<Mouse>/delta",
                    "interactions": "",
                    "processors": "",
                    "groups": "",
                    "action": "FreeLook",
                    "isComposite": false,
                    "isPartOfComposite": false
                },
                {
                    "name": "W",
                    "id": "6dee58d4-427f-4b83-999a-cb366f6f7dae",
                    "path": "OneModifier",
                    "interactions": "",
                    "processors": "",
                    "groups": "",
                    "action": "Run",
                    "isComposite": true,
                    "isPartOfComposite": false
                },
                {
                    "name": "modifier",
                    "id": "ea771151-eafa-483a-bf67-da69c850820a",
                    "path": "<Keyboard>/leftShift",
                    "interactions": "",
                    "processors": "",
                    "groups": "",
                    "action": "Run",
                    "isComposite": false,
                    "isPartOfComposite": true
                },
                {
                    "name": "binding",
                    "id": "8baec269-191d-4558-86b5-dc1074ae00af",
                    "path": "<Keyboard>/w",
                    "interactions": "",
                    "processors": "",
                    "groups": "",
                    "action": "Run",
                    "isComposite": false,
                    "isPartOfComposite": true
                },
                {
                    "name": "S",
                    "id": "e5b1f29d-c8e1-46b9-bf6f-8d50865874fd",
                    "path": "OneModifier",
                    "interactions": "",
                    "processors": "",
                    "groups": "",
                    "action": "Run",
                    "isComposite": true,
                    "isPartOfComposite": false
                },
                {
                    "name": "modifier",
                    "id": "24863d06-8cdb-40a3-ab8c-a93349b2c044",
                    "path": "<Keyboard>/leftShift",
                    "interactions": "",
                    "processors": "",
                    "groups": "",
                    "action": "Run",
                    "isComposite": false,
                    "isPartOfComposite": true
                },
                {
                    "name": "binding",
                    "id": "e29cd702-759a-404d-a5d6-a756027b5a16",
                    "path": "<Keyboard>/s",
                    "interactions": "",
                    "processors": "",
                    "groups": "",
                    "action": "Run",
                    "isComposite": false,
                    "isPartOfComposite": true
                },
                {
                    "name": "A",
                    "id": "9b51ed89-c1ce-4185-8b9e-077f29d21fa1",
                    "path": "OneModifier",
                    "interactions": "",
                    "processors": "",
                    "groups": "",
                    "action": "Run",
                    "isComposite": true,
                    "isPartOfComposite": false
                },
                {
                    "name": "modifier",
                    "id": "41ab686c-5ea8-45e7-841e-b60584387553",
                    "path": "<Keyboard>/leftShift",
                    "interactions": "",
                    "processors": "",
                    "groups": "",
                    "action": "Run",
                    "isComposite": false,
                    "isPartOfComposite": true
                },
                {
                    "name": "binding",
                    "id": "5e869d56-a4ce-4ef5-8ac8-9d957fa8b2d7",
                    "path": "<Keyboard>/a",
                    "interactions": "",
                    "processors": "",
                    "groups": "",
                    "action": "Run",
                    "isComposite": false,
                    "isPartOfComposite": true
                },
                {
                    "name": "D",
                    "id": "74190270-e45b-415a-814b-b7bbef2f5961",
                    "path": "OneModifier",
                    "interactions": "",
                    "processors": "",
                    "groups": "",
                    "action": "Run",
                    "isComposite": true,
                    "isPartOfComposite": false
                },
                {
                    "name": "modifier",
                    "id": "e4dcd4d5-f4b0-436a-998d-939941f3d66f",
                    "path": "<Keyboard>/leftShift",
                    "interactions": "",
                    "processors": "",
                    "groups": "",
                    "action": "Run",
                    "isComposite": false,
                    "isPartOfComposite": true
                },
                {
                    "name": "binding",
                    "id": "20640a71-d2d5-4858-b912-f7e10d2197d1",
                    "path": "<Keyboard>/d",
                    "interactions": "",
                    "processors": "",
                    "groups": "",
                    "action": "Run",
                    "isComposite": false,
                    "isPartOfComposite": true
                },
                {
                    "name": "",
                    "id": "18a3f4e5-0295-42fb-b703-61eab323ff8e",
                    "path": "<Mouse>/middleButton",
                    "interactions": "",
                    "processors": "",
                    "groups": "",
                    "action": "LookLock",
                    "isComposite": false,
                    "isPartOfComposite": false
                },
                {
                    "name": "",
                    "id": "37f30b52-1a17-49c5-a798-6de2934eab95",
                    "path": "<Keyboard>/r",
                    "interactions": "",
                    "processors": "",
                    "groups": "",
                    "action": "Skill",
                    "isComposite": false,
                    "isPartOfComposite": false
                }
            ]
        },
        {
            "name": "UI",
            "id": "30a6774b-75aa-4bb1-9581-396f4809723c",
            "actions": [
                {
                    "name": "K",
                    "type": "Button",
                    "id": "11c4fa8d-50f9-4177-9b65-050c2d86e7ca",
                    "expectedControlType": "Button",
                    "processors": "",
                    "interactions": "",
                    "initialStateCheck": false
                },
                {
                    "name": "Esc",
                    "type": "Button",
                    "id": "543c138d-1252-481c-a35c-67d44604dcf7",
                    "expectedControlType": "Button",
                    "processors": "",
                    "interactions": "",
                    "initialStateCheck": false
                }
            ],
            "bindings": [
                {
                    "name": "",
                    "id": "16954ce2-1cf2-4934-8acf-90fae48471f0",
                    "path": "<Keyboard>/k",
                    "interactions": "",
                    "processors": "",
                    "groups": "",
                    "action": "K",
                    "isComposite": false,
                    "isPartOfComposite": false
                },
                {
                    "name": "",
                    "id": "b19a5dfd-9ea6-4eee-827e-55dfabcb5592",
                    "path": "<Keyboard>/escape",
                    "interactions": "",
                    "processors": "",
                    "groups": "",
                    "action": "Esc",
                    "isComposite": false,
                    "isPartOfComposite": false
                }
            ]
        }
    ],
    "controlSchemes": []
}