%YAML 1.1
%TAG !u! tag:unity3d.com,2011:
--- !u!114 &11400000
MonoBehaviour:
  m_ObjectHideFlags: 0
  m_CorrespondingSourceObject: {fileID: 0}
  m_PrefabInstance: {fileID: 0}
  m_PrefabAsset: {fileID: 0}
  m_GameObject: {fileID: 0}
  m_Enabled: 1
  m_EditorHideFlags: 0
  m_Script: {fileID: 11500000, guid: f9c6a287dbed4cccb11ff8615aac5317, type: 3}
  m_Name: Demon
  m_EditorClassIdentifier: 
  HP: 100
  WeaponData: {fileID: 11400000, guid: 9ba4bcf5df127644da30f201cf7885e3, type: 2}
  AttackDatas:
  - {fileID: 11400000, guid: e7decda704e580047a07cf989c2f8413, type: 2}
  - {fileID: 11400000, guid: fa7a9b7050aa0814da69d7159b8572bd, type: 2}
  - {fileID: 11400000, guid: 911482bb213ac264abf34859eb86ca74, type: 2}
  PhysicAttack: 10
  FindPathDistance: 5
  AttackDistance: 2
  HittedEfx: {fileID: 5182212054622162808, guid: 282924e8ea21b584faa7ee9fdefaf65a, type: 3}
  GetHitAnimationName: GetHit
  MoveDrag: 0.3
  RotationDamping: 0
  WalkAniName: Walk
  WalkAniSpeed: 1
  WalkSpeed: 1
  WalkAudio: {fileID: 0}
  WalkAudioInterval: 0.5
  WalkAudioVolume: 0.5
  RunAniName: Run
  RunAniSpeed: 1
  RunSpeed: 0
  RunAudio: {fileID: 0}
  RunAudioInterval: 0.5
  RunAudioVolume: 0.5
  JumpAnimationName: Jump
  JumpAnimationSpeed: 1
  JumpFixedTransitionDuration: 0.2
  JumpEndTime: 1
  JumpAddForceStartTime: 0
  JumpAddForce: {x: 0, y: 0, z: 0}
  JumpAddForceDuration: 0
  SkillData: {fileID: 0}
